<?xml version="1.0" encoding="UTF-8" standalone="no"?>
<svg width="126px" height="126px" viewBox="0 0 126 126" version="1.1" xmlns="http://www.w3.org/2000/svg" xmlns:xlink="http://www.w3.org/1999/xlink" xmlns:sketch="http://www.bohemiancoding.com/sketch/ns">
    <!-- Generator: Sketch 3.5 (25232) - http://www.bohemiancoding.com/sketch -->
    <title>Group 4</title>
    <desc>Created with Sketch.</desc>
    <defs></defs>
    <g id="Page-1" stroke="none" stroke-width="1" fill="none" fill-rule="evenodd" sketch:type="MSPage">
        <g id="Desktop" sketch:type="MSArtboardGroup" transform="translate(-408.000000, -1850.000000)">
            <g id="USE-CASES" sketch:type="MSLayerGroup" transform="translate(0.000000, 1677.000000)">
                <g id="icons" transform="translate(397.000000, 173.000000)" sketch:type="MSShapeGroup">
                    <g id="Monthly-coverage-Reports">
                        <g id="Group-4" transform="translate(11.000000, 0.000000)">
                            <ellipse id="Oval-25" fill="#23A18A" cx="62.9034335" cy="62.8233256" rx="62.8648069" ry="62.8233256"></ellipse>
                            <g id="Fill-1987-+-Fill-1988" transform="translate(32.635193, 40.020785)" fill="#FFFFFF">
                                <path d="M38.1607654,8.08654829 L9.81276824,8.08654829 C9.20982815,8.08654829 8.72246066,7.72427093 8.72246066,7.27789346 C8.72246066,6.831516 9.20982815,6.46923863 9.81276824,6.46923863 L38.1607654,6.46923863 C38.7637055,6.46923863 39.251073,6.831516 39.251073,7.27789346 C39.251073,7.72427093 38.7637055,8.08654829 38.1607654,8.08654829 L38.1607654,8.08654829 Z M38.1607654,16.1730966 L31.6189199,16.1730966 C31.0159798,16.1730966 30.5286123,15.8108192 30.5286123,15.3644418 C30.5286123,14.9180643 31.0159798,14.5557869 31.6189199,14.5557869 L38.1607654,14.5557869 C38.7637055,14.5557869 39.251073,14.9180643 39.251073,15.3644418 C39.251073,15.8108192 38.7637055,16.1730966 38.1607654,16.1730966 L38.1607654,16.1730966 Z M38.1607654,19.4077159 L29.4383047,19.4077159 C28.8353646,19.4077159 28.3479971,19.0454385 28.3479971,18.5990611 C28.3479971,18.1526836 28.8353646,17.7904062 29.4383047,17.7904062 L38.1607654,17.7904062 C38.7637055,17.7904062 39.251073,18.1526836 39.251073,18.5990611 C39.251073,19.0454385 38.7637055,19.4077159 38.1607654,19.4077159 L38.1607654,19.4077159 Z M38.1607654,22.6423352 L29.4383047,22.6423352 C28.8353646,22.6423352 28.3479971,22.2800579 28.3479971,21.8336804 C28.3479971,21.3873029 28.8353646,21.0250256 29.4383047,21.0250256 L38.1607654,21.0250256 C38.7637055,21.0250256 39.251073,21.3873029 39.251073,21.8336804 C39.251073,22.2800579 38.7637055,22.6423352 38.1607654,22.6423352 L38.1607654,22.6423352 Z M38.1607654,25.8769545 L29.4383047,25.8769545 C28.8353646,25.8769545 28.3479971,25.5146772 28.3479971,25.0682997 C28.3479971,24.6219222 28.8353646,24.2596449 29.4383047,24.2596449 L38.1607654,24.2596449 C38.7637055,24.2596449 39.251073,24.6219222 39.251073,25.0682997 C39.251073,25.5146772 38.7637055,25.8769545 38.1607654,25.8769545 L38.1607654,25.8769545 Z M38.1607654,29.1115738 L9.81276824,29.1115738 C9.20982815,29.1115738 8.72246066,28.7492965 8.72246066,28.302919 C8.72246066,27.8565416 9.20982815,27.4942642 9.81276824,27.4942642 L38.1607654,27.4942642 C38.7637055,27.4942642 39.251073,27.8565416 39.251073,28.302919 C39.251073,28.7492965 38.7637055,29.1115738 38.1607654,29.1115738 L38.1607654,29.1115738 Z M38.1607654,32.3461932 L9.81276824,32.3461932 C9.20982815,32.3461932 8.72246066,31.9839158 8.72246066,31.5375383 C8.72246066,31.0911609 9.20982815,30.7288835 9.81276824,30.7288835 L38.1607654,30.7288835 C38.7637055,30.7288835 39.251073,31.0911609 39.251073,31.5375383 C39.251073,31.9839158 38.7637055,32.3461932 38.1607654,32.3461932 L38.1607654,32.3461932 Z M38.1607654,35.5808125 L9.81276824,35.5808125 C9.20982815,35.5808125 8.72246066,35.2185351 8.72246066,34.7721576 C8.72246066,34.3257802 9.20982815,33.9635028 9.81276824,33.9635028 L38.1607654,33.9635028 C38.7637055,33.9635028 39.251073,34.3257802 39.251073,34.7721576 C39.251073,35.2185351 38.7637055,35.5808125 38.1607654,35.5808125 L38.1607654,35.5808125 Z M38.1607654,38.8154318 L9.81276824,38.8154318 C9.20982815,38.8154318 8.72246066,38.4531544 8.72246066,38.006777 C8.72246066,37.5603995 9.20982815,37.1981221 9.81276824,37.1981221 L38.1607654,37.1981221 C38.7637055,37.1981221 39.251073,37.5603995 39.251073,38.006777 C39.251073,38.4531544 38.7637055,38.8154318 38.1607654,38.8154318 L38.1607654,38.8154318 Z M8.72246066,12.1298224 C8.72246066,11.683445 9.20982815,11.3211676 9.81276824,11.3211676 L25.0770744,11.3211676 C25.6800145,11.3211676 26.167382,11.683445 26.167382,12.1298224 L26.167382,25.0682997 C26.167382,25.5146772 25.6800145,25.8769545 25.0770744,25.8769545 L9.81276824,25.8769545 C9.20982815,25.8769545 8.72246066,25.5146772 8.72246066,25.0682997 L8.72246066,12.1298224 Z M46.883226,0.808654829 L46.883226,0 L1.09030758,0 C0.487367489,0 1.24344979e-13,0.362277363 1.24344979e-13,0.808654829 L1.24344979e-13,41.2413963 C1.24344979e-13,45.7302392 2.78298569,48.5192897 8.83637339,48.5192897 L49.8810023,48.5192897 C47.7745281,47.2812392 46.883226,45.0970625 46.883226,41.2413963 L46.883226,0.808654829 Z" id="Fill-1987"></path>
                                <path d="M55.1825823,41.2011253 C55.1825823,41.6693364 54.8399328,42.0502128 54.4177396,42.0502128 C53.9955465,42.0502128 53.652897,41.6693364 53.652897,41.2011253 L53.652897,12.1299842 L53.652897,10.5126745 L55.1825823,10.5126745 L55.1825823,41.2011253 Z M59.7716381,6.46940036 L53.652897,6.46940036 L53.652897,4.04343588 C53.652897,3.59705841 53.3110123,3.23478105 52.8880544,3.23478105 L49.8286838,3.23478105 C49.4057259,3.23478105 49.0638412,3.59705841 49.0638412,4.04343588 L49.0638412,41.241558 C49.0638412,41.6499287 49.0852568,42.0291878 49.1166153,42.3938911 C49.1219692,42.4642441 49.128088,42.5337884 49.1357364,42.6025241 C49.6267654,47.3388154 52.6547774,48.2841329 53.8938224,48.4709322 C53.9098841,48.4652716 53.9282403,48.4668889 53.9435372,48.4604197 C54.2204102,48.4951918 54.5026372,48.5194515 54.8001609,48.5194515 C58.741395,48.5194515 60.5364807,44.746268 60.5364807,41.241558 L60.5364807,7.27805519 C60.5364807,6.83167773 60.194596,6.46940036 59.7716381,6.46940036 L59.7716381,6.46940036 Z" id="Fill-1988"></path>
                            </g>
                        </g>
                    </g>
                </g>
            </g>
        </g>
    </g>
</svg>