<?xml version="1.0" encoding="UTF-8" standalone="no"?>
<svg width="126px" height="126px" viewBox="0 0 126 126" version="1.1" xmlns="http://www.w3.org/2000/svg" xmlns:xlink="http://www.w3.org/1999/xlink" xmlns:sketch="http://www.bohemiancoding.com/sketch/ns">
    <!-- Generator: Sketch 3.5 (25232) - http://www.bohemiancoding.com/sketch -->
    <title>Group 6</title>
    <desc>Created with Sketch.</desc>
    <defs></defs>
    <g id="Page-1" stroke="none" stroke-width="1" fill="none" fill-rule="evenodd" sketch:type="MSPage">
        <g id="Desktop" sketch:type="MSArtboardGroup" transform="translate(-920.000000, -1850.000000)">
            <g id="USE-CASES" sketch:type="MSLayerGroup" transform="translate(0.000000, 1677.000000)">
                <g id="icons" transform="translate(397.000000, 173.000000)" sketch:type="MSShapeGroup">
                    <g id="event-summaries" transform="translate(523.270386, 0.000000)">
                        <g id="Group-6">
                            <ellipse id="Oval-25" fill="#825084" cx="62.8648069" cy="62.8233256" rx="62.8648069" ry="62.8233256"></ellipse>
                            <g id="Fill-1462-+-Fill-1463" transform="translate(62.456538, 61.702356) rotate(-40.000000) translate(-62.456538, -61.702356) translate(35.913620, 44.484112)" fill="#FFFFFF">
                                <path d="M41.7724618,5.87940066 L40.0319426,5.87940066 L40.0319426,4.1995719 L41.7724618,4.1995719 L41.7724618,5.87940066 Z M41.7724618,10.9188869 L40.0319426,10.9188869 L40.0319426,9.23905819 L41.7724618,9.23905819 L41.7724618,10.9188869 Z M41.7724618,15.9583732 L40.0319426,15.9583732 L40.0319426,14.2785445 L41.7724618,14.2785445 L41.7724618,15.9583732 Z M41.7724618,20.9978595 L40.0319426,20.9978595 L40.0319426,19.3180308 L41.7724618,19.3180308 L41.7724618,20.9978595 Z M41.7724618,26.0373458 L40.0319426,26.0373458 L40.0319426,24.357517 L41.7724618,24.357517 L41.7724618,26.0373458 Z M41.7724618,31.0768321 L40.0319426,31.0768321 L40.0319426,29.3970033 L41.7724618,29.3970033 L41.7724618,31.0768321 Z M34.8095146,26.8772602 C34.8095146,27.3417328 34.4205085,27.7171746 33.939255,27.7171746 L14.7952838,27.7171746 C14.3140303,27.7171746 13.9250242,27.3417328 13.9250242,26.8772602 L13.9250242,8.40082364 C13.9250242,7.93635098 14.3140303,7.56090925 14.7952838,7.56090925 L33.939255,7.56090925 C34.4205085,7.56090925 34.8095146,7.93635098 34.8095146,8.40082364 L34.8095146,26.8772602 Z M51.3453177,11.7588013 C51.8265712,11.7588013 52.2155773,11.3833596 52.2155773,10.9188869 L52.2155773,1.67982876 C52.2155773,1.21535611 51.8265712,0.839914381 51.3453177,0.839914381 L0.870259621,0.839914381 C0.389006051,0.839914381 6.61750102e-14,1.21535611 6.61750102e-14,1.67982876 L6.61750102e-14,10.9188869 C6.61750102e-14,11.3833596 0.389006051,11.7588013 0.870259621,11.7588013 C4.2285915,11.7588013 6.96207697,14.3969724 6.96207697,17.638202 C6.96207697,20.8794316 4.2285915,23.5176027 0.870259621,23.5176027 C0.389006051,23.5176027 6.61750102e-14,23.8930444 6.61750102e-14,24.357517 L6.61750102e-14,33.5965752 C6.61750102e-14,34.0610479 0.389006051,34.4364896 0.870259621,34.4364896 L51.3453177,34.4364896 C51.8265712,34.4364896 52.2155773,34.0610479 52.2155773,33.5965752 L52.2155773,24.357517 C52.2155773,23.8930444 51.8265712,23.5176027 51.3453177,23.5176027 C47.9869858,23.5176027 45.2535003,20.8794316 45.2535003,17.638202 C45.2535003,14.3969724 47.9869858,11.7588013 51.3453177,11.7588013 L51.3453177,11.7588013 Z" id="Fill-1462"></path>
                                <path d="M20.0159713,19.3180308 L28.7185675,19.3180308 C29.1998211,19.3180308 29.5888271,19.6934725 29.5888271,20.1579451 C29.5888271,20.6224178 29.1998211,20.9978595 28.7185675,20.9978595 L20.0159713,20.9978595 C19.5347177,20.9978595 19.1457117,20.6224178 19.1457117,20.1579451 C19.1457117,19.6934725 19.5347177,19.3180308 20.0159713,19.3180308 L20.0159713,19.3180308 Z M20.0159713,14.2785445 L28.7185675,14.2785445 C29.1998211,14.2785445 29.5888271,14.6539862 29.5888271,15.1184589 C29.5888271,15.5829315 29.1998211,15.9583732 28.7185675,15.9583732 L20.0159713,15.9583732 C19.5347177,15.9583732 19.1457117,15.5829315 19.1457117,15.1184589 C19.1457117,14.6539862 19.5347177,14.2785445 20.0159713,14.2785445 L20.0159713,14.2785445 Z M15.6655434,26.0373458 L33.0689954,26.0373458 L33.0689954,9.24073802 L15.6655434,9.24073802 L15.6655434,26.0373458 Z" id="Fill-1463"></path>
                            </g>
                        </g>
                    </g>
                </g>
            </g>
        </g>
    </g>
</svg>