<?xml version="1.0" encoding="UTF-8" standalone="no"?>
<svg width="17px" height="12px" viewBox="0 0 17 12" version="1.1" xmlns="http://www.w3.org/2000/svg" xmlns:xlink="http://www.w3.org/1999/xlink" xmlns:sketch="http://www.bohemiancoding.com/sketch/ns">
    <!-- Generator: Sketch 3.5 (25232) - http://www.bohemiancoding.com/sketch -->
    <title>Fill 2008 + Fill 2009 Copy 2</title>
    <desc>Created with Sketch.</desc>
    <defs></defs>
    <g id="Page-1" stroke="none" stroke-width="1" fill="none" fill-rule="evenodd" sketch:type="MSPage">
        <g id="Desktop" sketch:type="MSArtboardGroup" transform="translate(-973.000000, -44.000000)" fill="#999999">
            <g id="MAIN-HEADER" sketch:type="MSLayerGroup" transform="translate(3.000000, 1.000000)">
                <g id="Email" transform="translate(970.000000, 38.000000)" sketch:type="MSShapeGroup">
                    <g id="Fill-2008-+-Fill-2009-Copy-2" transform="translate(0.000000, 5.000000)">
                        <path d="M16.2417614,0.71016 L8.76917324,6.83376 C8.7153583,6.87816 8.64912454,6.90036 8.58348214,6.90036 C8.52257073,6.90036 8.4622507,6.88176 8.41020988,6.84336 L0.248080937,0.84696 C0.0949153525,1.11696 0.00857490724,1.43916 0.00857490724,1.80036 L0.00857490724,9.60036 C0.00857490724,10.62636 0.749565167,11.40036 1.7312442,11.40036 L14.7928977,11.40036 C15.7710285,11.40036 16.5670165,10.59276 16.5670165,9.60036 L16.5670165,1.80036 C16.5670165,1.37616 16.4487419,1.00476 16.2417614,0.71016" id="Fill-2008"></path>
                        <path d="M15.8131343,0.29034 C15.5316408,0.10434 15.1845049,0.00054 14.793016,0.00054 L1.78281192,0.00054 C1.32745478,0.00054 0.932417672,0.14094 0.631408859,0.38754 L8.57354708,6.22254 L15.8131343,0.29034 Z" id="Fill-2009"></path>
                    </g>
                </g>
            </g>
        </g>
    </g>
</svg>