<?xml version="1.0" encoding="UTF-8" standalone="no"?>
<svg width="20px" height="14px" viewBox="0 0 20 14" version="1.1" xmlns="http://www.w3.org/2000/svg" xmlns:xlink="http://www.w3.org/1999/xlink" xmlns:sketch="http://www.bohemiancoding.com/sketch/ns">
    <!-- Generator: Sketch 3.5.1 (25234) - http://www.bohemiancoding.com/sketch -->
    <title>Fill 2008 + Fill 2009</title>
    <desc>Created with Sketch.</desc>
    <defs></defs>
    <g id="Page-1" stroke="none" stroke-width="1" fill="none" fill-rule="evenodd" sketch:type="MSPage">
        <g id="Desktop" sketch:type="MSArtboardGroup" transform="translate(-299.000000, -7470.000000)" fill="#6BAAB9">
            <g id="FOOTER" sketch:type="MSLayerGroup" transform="translate(-1.000000, 7405.000000)">
                <g id="phone-and-twitter-+-contact-sales-+-contact-support" transform="translate(286.000000, 55.000000)" sketch:type="MSShapeGroup">
                    <g id="contact-sales-+-contact-support">
                        <g id="contact-sales">
                            <g id="Fill-2008-+-Fill-2009" transform="translate(14.000000, 10.000000)">
                                <path d="M18.7257955,0.82852 L10.1103409,7.97272 C10.0482955,8.02452 9.97193182,8.05042 9.89625,8.05042 C9.82602273,8.05042 9.75647727,8.02872 9.69647727,7.98392 L0.286022727,0.98812 C0.109431818,1.30312 0.00988636364,1.67902 0.00988636364,2.10042 L0.00988636364,11.20042 C0.00988636364,12.39742 0.864204545,13.30042 1.99602273,13.30042 L17.0553409,13.30042 C18.1830682,13.30042 19.1007955,12.35822 19.1007955,11.20042 L19.1007955,2.10042 C19.1007955,1.60552 18.9644318,1.17222 18.7257955,0.82852" id="Fill-2008"></path>
                                <path d="M18.2316136,0.33873 C17.9070682,0.12173 17.5068409,0.00063 17.0554773,0.00063 L2.05547727,0.00063 C1.53047727,0.00063 1.07502273,0.16443 0.727977273,0.45213 L9.88479545,7.25963 L18.2316136,0.33873 Z" id="Fill-2009"></path>
                            </g>
                        </g>
                    </g>
                </g>
            </g>
        </g>
    </g>
</svg>