<?xml version="1.0" encoding="UTF-8" standalone="no"?>
<svg width="24px" height="16px" viewBox="0 0 24 16" version="1.1" xmlns="http://www.w3.org/2000/svg" xmlns:xlink="http://www.w3.org/1999/xlink" xmlns:sketch="http://www.bohemiancoding.com/sketch/ns">
    <!-- Generator: Sketch 3.5.1 (25234) - http://www.bohemiancoding.com/sketch -->
    <title>Rectangle 32 + Rectangle 32 Copy + Rectangle 32 + Rectangle 32 Copy 2 Copy</title>
    <desc>Created with Sketch.</desc>
    <defs></defs>
    <g id="Page-1" stroke="none" stroke-width="1" fill="none" fill-rule="evenodd" sketch:type="MSPage">
        <g id="Desktop" sketch:type="MSArtboardGroup" transform="translate(-708.000000, -4640.000000)">
            <g id="WHAT-FIRST-DROVE-YOU..." sketch:type="MSLayerGroup" transform="translate(-90.000000, 4066.000000)">
                <g id="Quote" transform="translate(476.000000, 203.000000)" sketch:type="MSShapeGroup">
                    <g id="Rectangle-32-+-Rectangle-32-Copy-+-Rectangle-32-+-Rectangle-32-Copy-2-Copy-+-Line-Copy-3-+-Line-Copy-2-Copy" transform="translate(55.000000, 371.000000)">
                        <g id="Rectangle-32-+-Rectangle-32-Copy-+-Rectangle-32-+-Rectangle-32-Copy-2-Copy" transform="translate(279.500000, 8.000000) scale(-1, -1) rotate(-180.000000) translate(-279.500000, -8.000000) translate(267.000000, 0.000000)">
                            <g id="Rectangle-32-+-Rectangle-32-Copy" transform="translate(0.000000, 0.000000)">
                                <rect id="Rectangle-32" fill="#FFFFFF" x="0" y="0" width="11.2" height="10.8571429"></rect>
                                <path d="M6.72,10.8571429 L11.2,10.8571429 L6.72,15.2 L6.72,10.8571429 Z" id="Rectangle-32-Copy" fill="#D8D8D8"></path>
                            </g>
                            <g id="Rectangle-32-+-Rectangle-32-Copy-2" transform="translate(12.800000, 0.000000)">
                                <rect id="Rectangle-32" fill="#FFFFFF" x="0" y="2.22044605e-16" width="11.2" height="10.8571429"></rect>
                                <path d="M6.72,10.8571429 L11.2,10.8571429 L6.72,15.2 L6.72,10.8571429 Z" id="Rectangle-32-Copy" fill="#D8D8D8"></path>
                            </g>
                        </g>
                    </g>
                </g>
            </g>
        </g>
    </g>
</svg>